{
  "name": "Using fixtures to represent data",
  "email": "hello@cypress.io",
  "body": "Fixtures are a great way to mock data for responses to routes",
  "productName": ["Blackberry","Nokia Edge"],
  "contact": "a[href$='contact']",
  "first_name": "input#ContactUsFrm_first_name",
  "emailTest": "#ContactUsFrm_email",
  "enquiry": "#ContactUsFrm_enquiry",
  "submit": "button[type='submit'][title='Submit']"
}
